<svg id="Layer_1" data-name="Layer 1" xmlns="http://www.w3.org/2000/svg" viewBox="0 0 7.41 12">
  <defs>
    <style>
      .cls-1 {
        fill: #fff;
      }
    </style>
  </defs>
  <path id="ic_chevron_left_24px" data-name="ic chevron left 24px" class="cls-1" d="M259.7,251.8l-1.4-1.41-6,6,6,6,1.4-1.41-4.58-4.59Z" transform="translate(-252.3 -250.39)"/>
</svg>
