<svg xmlns="http://www.w3.org/2000/svg" viewBox="0 0 23.03 22.51">
  <defs>
    <style>
      .cls-1 {
        fill: #fff;
      }
    </style>
  </defs>
  <g id="Layer_2" data-name="Layer 2">
    <g id="Layer_1-2" data-name="Layer 1">
      <path class="cls-1" d="M18,0H2A2,2,0,0,0,0,2V20l4-4H18a2,2,0,0,0,2-2V2A2,2,0,0,0,18,0Zm0,14H4L2,16V2H18Z"/>
      <path class="cls-1" d="M21.13,5.47h-.66v1.7h.66V19.1l-1.9-1.71H6v-.77H4.05v.77A1.83,1.83,0,0,0,6,19.1H19.23L23,22.51V7.17A1.81,1.81,0,0,0,21.13,5.47Z"/>
    </g>
  </g>
</svg>
