<?xml version="1.0" encoding="utf-8"?>
<!-- Generator: Adobe Illustrator 25.3.1, SVG Export Plug-In . SVG Version: 6.00 Build 0)  -->
<svg version="1.1" id="Layer_1" xmlns="http://www.w3.org/2000/svg" xmlns:xlink="http://www.w3.org/1999/xlink" x="0px" y="0px"
	 viewBox="0 0 48 40" style="enable-background:new 0 0 48 40;" xml:space="preserve">
<style type="text/css">
	.st0{fill:none;stroke:#FFFFFF;stroke-width:2;stroke-miterlimit:10;}
</style>
<g id="Layer_2_1_">
	<g id="Ñëîé_1">
		<path class="st0" d="M34,27c0,1.1-0.9,2-2,2h-4c-1.1,0-2-0.9-2-2s0.9-2,2-2h4C33.1,25,34,25.9,34,27z"/>
		<path class="st0" d="M34,23c0,1.1-0.9,2-2,2h-4c-1.1,0-2-0.9-2-2s0.9-2,2-2h4C33.1,21,34,21.9,34,23z"/>
		<path class="st0" d="M30,21h-2c-1.1,0-2-0.9-2-2s0.9-2,2-2h2"/>
		<path class="st0" d="M30,17h-2c-1.1,0-2-0.9-2-2s0.9-2,2-2h2"/>
		<path class="st0" d="M42,22h-1c-3.9,0-7-3.1-7-7v3c0,1.7-1.3,3-3,3h-1v-9c0-1.1,0.9-2,2-2h7.3c1.1,0,2.1,0.4,2.8,1.2L46,15h2"/>
		<line class="st0" x1="31" y1="29" x2="48" y2="29"/>
		<line class="st0" x1="45" y1="25" x2="45" y2="29"/>
		<path class="st0" d="M14,27c0,1.1,0.9,2,2,2h4c1.1,0,2-0.9,2-2s-0.9-2-2-2h-4C14.9,25,14,25.9,14,27z"/>
		<path class="st0" d="M14,23c0,1.1,0.9,2,2,2h4c1.1,0,2-0.9,2-2s-0.9-2-2-2h-4C14.9,21,14,21.9,14,23z"/>
		<path class="st0" d="M18,21h2c1.1,0,2-0.9,2-2s-0.9-2-2-2h-2"/>
		<path class="st0" d="M18,17h2c1.1,0,2-0.9,2-2s-0.9-2-2-2h-2"/>
		<path class="st0" d="M6,22h1c3.9,0,7-3.1,7-7v3c0,1.7,1.3,3,3,3h1v-9c0-1.1-0.9-2-2-2H8.7c-1.1,0-2.1,0.4-2.8,1.2L2,15H0"/>
		<line class="st0" x1="17" y1="29" x2="0" y2="29"/>
		<line class="st0" x1="3" y1="25" x2="3" y2="29"/>
		<line class="st0" x1="24" y1="8" x2="24" y2="0"/>
		<line class="st0" x1="29" y1="7" x2="31" y2="2"/>
		<line class="st0" x1="19" y1="7" x2="17" y2="2"/>
		<line class="st0" x1="24" y1="32" x2="24" y2="40"/>
		<line class="st0" x1="29" y1="33" x2="31" y2="38"/>
		<line class="st0" x1="19" y1="33" x2="17" y2="38"/>
	</g>
</g>
</svg>
