<svg id="Layer_1" data-name="Layer 1" xmlns="http://www.w3.org/2000/svg" viewBox="0 0 241.06 264">
  <defs>
    <style>
      .cls-1 {
        fill: #fff;
      }
    </style>
  </defs>
  <g>
    <path class="cls-1" d="M260,124a4,4,0,0,0-8,0c0,2.21,4,12,4,12S260,126.21,260,124Z" transform="translate(-134.94 -120)"/>
    <path class="cls-1" d="M229.08,139.54s1.33-10.49.76-12.62a4,4,0,1,0-7.73,2.07C222.69,131.12,229.08,139.54,229.08,139.54Z" transform="translate(-134.94 -120)"/>
    <path class="cls-1" d="M204,149.93s-1.43-10.48-2.54-12.39a4,4,0,0,0-6.92,4C195.64,143.45,204,149.93,204,149.93Z" transform="translate(-134.94 -120)"/>
    <path class="cls-1" d="M182.46,166.46s-4.09-9.75-5.66-11.31a4,4,0,0,0-5.65,5.65C172.71,162.37,182.46,166.46,182.46,166.46Z" transform="translate(-134.94 -120)"/>
    <path class="cls-1" d="M153.54,185.46c1.91,1.11,12.39,2.54,12.39,2.54s-6.48-8.36-8.39-9.46a4,4,0,1,0-4.29,6.75l.29.17Z" transform="translate(-134.94 -120)"/>
    <path class="cls-1" d="M142.92,213.84c2.13.57,12.62-.76,12.62-.76s-8.42-6.39-10.55-7a4,4,0,1,0-2.07,7.73h0Z" transform="translate(-134.94 -120)"/>
    <path class="cls-1" d="M140,244c2.21,0,12-4,12-4s-9.79-4-12-4a4,4,0,0,0,0,8Z" transform="translate(-134.94 -120)"/>
    <path class="cls-1" d="M329.54,313.54s4.09,9.75,5.66,11.31a4,4,0,0,0,5.65-5.65C339.29,317.63,329.54,313.54,329.54,313.54Z" transform="translate(-134.94 -120)"/>
    <path class="cls-1" d="M358.46,294.54c-1.91-1.11-12.39-2.54-12.39-2.54s6.48,8.36,8.39,9.46a4,4,0,0,0,4-6.92Z" transform="translate(-134.94 -120)"/>
    <path class="cls-1" d="M369.08,266.16c-2.13-.57-12.62.76-12.62.76s8.42,6.39,10.55,7a4,4,0,1,0,2.07-7.73Z" transform="translate(-134.94 -120)"/>
    <path class="cls-1" d="M372,236c-2.21,0-12,4-12,4s9.79,4,12,4a4,4,0,0,0,0-8Z" transform="translate(-134.94 -120)"/>
    <path class="cls-1" d="M369.08,213.84a4,4,0,0,0-2.07-7.73h0c-2.13.58-10.55,7-10.55,7S367,214.41,369.08,213.84Z" transform="translate(-134.94 -120)"/>
    <path class="cls-1" d="M359.92,180a4,4,0,0,0-5.46-1.46c-1.91,1.1-8.39,9.46-8.39,9.46s10.48-1.43,12.39-2.54A4,4,0,0,0,359.92,180Z" transform="translate(-134.94 -120)"/>
    <path class="cls-1" d="M340.85,155.15a4,4,0,0,0-5.65,0c-1.57,1.56-5.66,11.31-5.66,11.31s9.75-4.09,11.31-5.66A4,4,0,0,0,340.85,155.15Z" transform="translate(-134.94 -120)"/>
    <path class="cls-1" d="M317.46,141.54a4,4,0,0,0-6.92-4c-1.11,1.91-2.54,12.39-2.54,12.39S316.36,143.45,317.46,141.54Z" transform="translate(-134.94 -120)"/>
    <path class="cls-1" d="M289.89,129a4,4,0,1,0-7.73-2.07h0c-.57,2.13.76,12.62.76,12.62S289.31,131.12,289.89,129Z" transform="translate(-134.94 -120)"/>
    <path class="cls-1" d="M256,144h-.73c-52.93.4-95.27,44.27-95.27,97.21V256l-23.71,35.56A8,8,0,0,0,143,304h17v32a24,24,0,0,0,24,24h24a8,8,0,0,1,8,8v16h96V322a8,8,0,0,1,3.09-6.3A96,96,0,0,0,256,144Zm-70.19,79.9a4,4,0,1,1,3.9,4.89,3.8,3.8,0,0,1-.89-.1,4,4,0,0,1-3-4.79Zm-1.81,16a4,4,0,1,1,4,4h0a4,4,0,0,1-4-4ZM189.67,259a4,4,0,0,1-3.9-3.12h0a4,4,0,1,1,4.8,3h0a4.35,4.35,0,0,1-.88.13Zm6.74,14a4,4,0,1,1,1.87-5.34,4,4,0,0,1-1.87,5.34Zm1.94-60.86a4,4,0,1,1-1.86-5.35,4,4,0,0,1,1.86,5.35Zm6.91,73.28a4,4,0,1,1,.64-5.62,4,4,0,0,1-.64,5.62Zm.74-85.4h0a4,4,0,1,1-.62-5.62h0a4,4,0,0,1,.62,5.61Zm34-30.27a4,4,0,0,1,1.77,7.8,3.8,3.8,0,0,1-.89.1,4,4,0,0,1-.88-7.9Zm-15.23,5.31a4,4,0,1,1-1.87,5.34,4,4,0,0,1,1.87-5.34h0Zm-13.65,8.58a4,4,0,1,1-.63,5.62h0a4,4,0,0,1,.65-5.62h0Zm5.49,111.93A4,4,0,1,1,216,290h0a4,4,0,0,1,.64,5.6ZM208,240a48,48,0,0,1,44-47.82v8a40,40,0,0,0,0,79.6v8A48,48,0,0,1,208,240Zm72,0a24,24,0,1,1-24-24A24,24,0,0,1,280,240Zm-20-39.8v-8a47.53,47.53,0,0,1,16.45,4.39l-4,7A39.91,39.91,0,0,0,260,200.2Zm32.46,56.23A39.78,39.78,0,0,0,295.8,244h8a47.53,47.53,0,0,1-4.39,16.45Zm3,10.95a48.52,48.52,0,0,1-12,12l-4-7a40.5,40.5,0,0,0,9.1-9.1ZM295.8,236a39.78,39.78,0,0,0-3.34-12.43l7-4A47.66,47.66,0,0,1,303.82,236Zm-7.35-19.35a40.5,40.5,0,0,0-9.1-9.1l4-7a48.52,48.52,0,0,1,12,12Zm-12,66.78A47.53,47.53,0,0,1,260,287.82v-8a39.78,39.78,0,0,0,12.43-3.34ZM230,303a4,4,0,1,1-1.86-5.34h0A4,4,0,0,1,230,303Zm14.66,4.21a4,4,0,1,1-3-4.8,4,4,0,0,1,3,4.8ZM256,312h-.13a4,4,0,0,1,0-8H256a64,64,0,0,0,0-128h0a4,4,0,0,1,0-8h.05A72,72,0,0,1,256,312Z" transform="translate(-134.94 -120)"/>
    <circle class="cls-1" cx="121.06" cy="120" r="16"/>
  </g>
</svg>
